<svg width="122" height="140" viewBox="0 0 122 140" fill="none" xmlns="http://www.w3.org/2000/svg">
<rect width="122" height="140" fill="black" fill-opacity="0"/>
<path fill-rule="evenodd" clip-rule="evenodd" d="M60.6218 0L121.244 35V105L60.6218 140L-1.33514e-05 105V35L60.6218 0Z" fill="#FFCF01"/>
<rect width="63.3366" height="65" fill="black" fill-opacity="0" transform="translate(29 38)"/>
<rect width="51.1811" height="65" fill="black" fill-opacity="0" transform="translate(29 38)"/>
<mask id="mask0" mask-type="alpha" maskUnits="userSpaceOnUse" x="29" y="38" width="52" height="65">
<path fill-rule="evenodd" clip-rule="evenodd" d="M29 38H80.077V103H29V38Z" fill="white"/>
</mask>
<g mask="url(#mask0)">
<path fill-rule="evenodd" clip-rule="evenodd" d="M33.5259 51.0994H41.5493C41.8527 51.0994 42.0995 50.8526 42.0995 50.5491V42.5254L33.5259 51.0994ZM32.2023 103C30.4367 103 29.0001 101.563 28.9999 99.7976V52.4245C28.9999 52.0757 29.1415 51.7341 29.3881 51.4874L42.4873 38.3882C42.738 38.1379 43.0709 38 43.4246 38H76.8764C78.6413 38 80.077 39.4365 80.077 41.2023V46.1915C80.077 46.9223 79.4824 47.5169 78.7518 47.5169C78.0209 47.5169 77.4262 46.9223 77.4262 46.1915V41.2023C77.4262 40.8981 77.1795 40.6507 76.8764 40.6507H44.7502V50.5491C44.7502 52.3142 43.3143 53.7501 41.5493 53.7501H31.6509V99.7977C31.6509 100.102 31.8983 100.349 32.2025 100.349H76.8765C77.1797 100.349 77.4263 100.102 77.4263 99.7977V75.6551C77.4263 74.9242 78.0209 74.3298 78.7518 74.3298C79.1057 74.3298 79.4385 74.4676 79.6888 74.718C79.9391 74.9684 80.0769 75.301 80.0769 75.6551V99.7977C80.0769 101.563 78.6411 103 76.8763 103H32.2023Z" fill="white"/>
</g>
<rect width="52.5886" height="44.5276" fill="black" fill-opacity="0" transform="translate(39.748 47.3406)"/>
<mask id="mask1" mask-type="alpha" maskUnits="userSpaceOnUse" x="39" y="47" width="54" height="45">
<path fill-rule="evenodd" clip-rule="evenodd" d="M39.7856 47.4211H92.2324V91.7639H39.7856V47.4211Z" fill="white"/>
</mask>
<g mask="url(#mask1)">
<path fill-rule="evenodd" clip-rule="evenodd" d="M85.2799 50.0701C84.6266 50.0701 84.0128 50.3239 83.5518 50.7848L81.3785 52.9581L86.6951 58.2747L88.8683 56.1014C89.3291 55.6405 89.583 55.0268 89.583 54.3734C89.583 53.72 89.3291 53.1063 88.8683 52.6454L87.0077 50.7848C86.5469 50.3239 85.9333 50.0701 85.2799 50.0701ZM53.8526 80.4843L59.169 85.8007L84.8206 60.1491L79.5042 54.8328L53.8526 80.4843ZM51.1183 88.5345L56.6253 87.0056L52.6474 83.0278L51.1183 88.5345ZM41.1109 91.7639C40.3802 91.7639 39.7856 91.1695 39.7856 90.4387C39.7856 89.7079 40.3802 89.1133 41.1109 89.1133H48.2068L50.7011 80.1294C50.7623 79.9096 50.8797 79.708 51.0409 79.5469L51.5034 79.0845H41.1109C40.3802 79.0845 39.7856 78.49 39.7856 77.7593C39.7856 77.0284 40.3802 76.4338 41.1109 76.4338H54.1542L64.1828 66.4051H41.1109C40.3802 66.4051 39.7856 65.8105 39.7856 65.0798C39.7856 64.3489 40.3802 63.7543 41.1109 63.7543H66.8335L81.6772 48.9106C82.6381 47.9502 83.9175 47.4211 85.28 47.4211C86.6423 47.4211 87.9217 47.9502 88.8822 48.9106L90.7428 50.7711C92.729 52.7574 92.7291 55.9894 90.7429 57.9756L60.1061 88.6118C59.9447 88.7733 59.7433 88.8908 59.5236 88.9517C59.5236 88.9517 49.588 91.7085 49.544 91.7208C49.5131 91.7268 49.3104 91.7514 49.2001 91.7639H41.1109Z" fill="white"/>
</g>
</svg>
