<svg width="78" height="90" viewBox="0 0 78 90" fill="none" xmlns="http://www.w3.org/2000/svg">
<rect width="78" height="90" fill="black" fill-opacity="0"/>
<path fill-rule="evenodd" clip-rule="evenodd" d="M38.9711 0L77.9423 22.5V67.5L38.9711 90L-1.28746e-05 67.5V22.5L38.9711 0Z" fill="#FFCF01"/>
<rect width="53" height="35" fill="black" fill-opacity="0" transform="translate(13 28)"/>
<path fill-rule="evenodd" clip-rule="evenodd" d="M50.1 28C48.1514 28 46.5667 29.5698 46.5667 31.5V32.6084L19.1436 41.1694C18.9457 39.668 17.6605 38.5 16.0917 38.5C14.3868 38.5 13 39.8735 13 41.5625V49.4375C13 51.1265 14.3868 52.5 16.0917 52.5C17.6605 52.5 18.9457 51.332 19.1436 49.8306L21.0286 50.4185C20.7495 50.7212 20.526 51.0815 20.39 51.4966C19.8794 53.0566 20.7451 54.7383 22.3218 55.2441L32.4051 58.48C32.7125 58.5776 33.0225 58.625 33.3282 58.625C34.5957 58.625 35.7768 57.8228 36.1884 56.5654C36.3394 56.1016 36.3571 55.6309 36.2829 55.1792L46.5667 58.3916V59.5C46.5667 61.4302 48.1514 63 50.1 63C52.0486 63 53.6333 61.4302 53.6333 59.5V31.5C53.6333 29.5698 52.0486 28 50.1 28ZM34.5074 56.0273C34.2972 56.6704 33.5976 57.0249 32.9492 56.8154L22.8659 53.5801C22.2167 53.3716 21.8589 52.6797 22.0701 52.0366C22.2812 51.394 22.979 51.0415 23.6274 51.249L33.7124 54.4849C34.3608 54.6929 34.7167 55.3853 34.5074 56.0273ZM16.0917 50.75C16.8222 50.75 17.4167 50.1611 17.4167 49.4375V49.2915V41.7085V41.5625C17.4167 40.8389 16.8222 40.25 16.0917 40.25C15.3611 40.25 14.7667 40.8389 14.7667 41.5625V49.4375C14.7667 50.1611 15.3611 50.75 16.0917 50.75ZM19.1833 48.0073V42.9922L46.5667 34.4424V56.5562L19.1833 48.0073ZM50.1 61.25C51.0743 61.25 51.8667 60.4653 51.8667 59.5V31.5C51.8667 30.5347 51.0743 29.75 50.1 29.75C49.1257 29.75 48.3333 30.5347 48.3333 31.5V32.0576V58.9424V59.5C48.3333 60.4653 49.1257 61.25 50.1 61.25Z" fill="white"/>
<path d="M61.5833 44.625H60.7C60.2115 44.625 59.8167 45.0161 59.8167 45.5C59.8167 45.9839 60.2115 46.375 60.7 46.375H61.5833C62.0718 46.375 62.4667 45.9839 62.4667 45.5C62.4667 45.0161 62.0718 44.625 61.5833 44.625Z" fill="white"/>
<path d="M57.1667 46.375H58.05C58.5385 46.375 58.9333 45.9839 58.9333 45.5C58.9333 45.0161 58.5385 44.625 58.05 44.625H57.1667C56.6782 44.625 56.2833 45.0161 56.2833 45.5C56.2833 45.9839 56.6782 46.375 57.1667 46.375Z" fill="white"/>
<path d="M65.1167 44.625H64.2333C63.7449 44.625 63.35 45.0161 63.35 45.5C63.35 45.9839 63.7449 46.375 64.2333 46.375H65.1167C65.6052 46.375 66 45.9839 66 45.5C66 45.0161 65.6052 44.625 65.1167 44.625Z" fill="white"/>
<path d="M59.6647 33.7189C59.8909 33.7189 60.117 33.6332 60.2893 33.4626L60.9138 32.8439C61.2592 32.5018 61.2592 31.9488 60.9138 31.6067C60.5684 31.2646 60.0101 31.2646 59.6647 31.6067L59.0402 32.2253C58.6948 32.5674 58.6948 33.1204 59.0402 33.4626C59.2125 33.6332 59.4386 33.7189 59.6647 33.7189Z" fill="white"/>
<path d="M62.1637 31.2438C62.3898 31.2438 62.6159 31.1581 62.7882 30.9875L63.4127 30.3688C63.7581 30.0267 63.7581 29.4737 63.4127 29.1316C63.0673 28.7895 62.5091 28.7895 62.1637 29.1316L61.5392 29.7502C61.1938 30.0923 61.1938 30.6453 61.5392 30.9875C61.7123 31.1581 61.9375 31.2438 62.1637 31.2438Z" fill="white"/>
<path d="M57.1667 36.1936C57.3928 36.1936 57.6189 36.1078 57.7912 35.9372L58.4157 35.3186C58.7611 34.9764 58.7611 34.4234 58.4157 34.0813C58.0703 33.7392 57.512 33.7392 57.1667 34.0813L56.5421 34.6999C56.1968 35.0421 56.1968 35.5951 56.5421 35.9372C56.7144 36.1087 56.9405 36.1936 57.1667 36.1936Z" fill="white"/>
<path d="M57.7249 39.4626L56.8875 39.7391C56.4247 39.8923 56.1747 40.3875 56.3293 40.846C56.4529 41.2126 56.7966 41.4445 57.1667 41.4445C57.2585 41.4445 57.3539 41.4296 57.4458 41.399L58.2832 41.1225C58.7461 40.9694 58.9961 40.4741 58.8415 40.0156C58.6869 39.5571 58.1869 39.3086 57.7249 39.4626Z" fill="white"/>
<path d="M60.5189 40.3376C60.6108 40.3376 60.7062 40.3227 60.798 40.2921L61.6354 40.0156C62.0983 39.8624 62.3483 39.3672 62.1937 38.9087C62.0391 38.4502 61.54 38.2017 61.0763 38.3557L60.2389 38.6322C59.776 38.7853 59.526 39.2806 59.6806 39.7391C59.8043 40.1057 60.1488 40.3376 60.5189 40.3376Z" fill="white"/>
<path d="M63.0329 38.6302C63.1566 38.9977 63.5011 39.2296 63.8712 39.2296C63.963 39.2296 64.0576 39.2147 64.1494 39.185L64.9868 38.9094C65.4497 38.7562 65.7006 38.261 65.5469 37.8025C65.3923 37.344 64.8914 37.0972 64.4294 37.2477L63.592 37.5234C63.1292 37.6774 62.8792 38.1726 63.0329 38.6302Z" fill="white"/>
<path d="M62.7882 60.0129C62.4428 59.6708 61.8845 59.6708 61.5392 60.0129C61.1938 60.3551 61.1938 60.9081 61.5392 61.2502L62.1637 61.8688C62.3368 62.0394 62.5621 62.1252 62.7882 62.1252C63.0143 62.1252 63.2405 62.0394 63.4127 61.8688C63.7581 61.5267 63.7581 60.9737 63.4127 60.6316L62.7882 60.0129Z" fill="white"/>
<path d="M60.2893 57.5374C59.9439 57.1952 59.3856 57.1952 59.0402 57.5374C58.6948 57.8795 58.6948 58.4325 59.0402 58.7746L59.6647 59.3932C59.837 59.5639 60.0631 59.6496 60.2893 59.6496C60.5154 59.6496 60.7415 59.5639 60.9138 59.3932C61.2592 59.0511 61.2592 58.4981 60.9138 58.156L60.2893 57.5374Z" fill="white"/>
<path d="M57.7912 55.0627C57.4458 54.7206 56.8875 54.7206 56.5421 55.0627C56.1968 55.4049 56.1968 55.9579 56.5421 56.3L57.1667 56.9186C57.3389 57.0892 57.565 57.175 57.7912 57.175C58.0173 57.175 58.2434 57.0892 58.4157 56.9186C58.7611 56.5765 58.7611 56.0235 58.4157 55.6814L57.7912 55.0627Z" fill="white"/>
<path d="M60.2398 52.368L61.0772 52.6445C61.169 52.6751 61.2644 52.69 61.3563 52.69C61.7264 52.69 62.0709 52.4581 62.1937 52.0915C62.3483 51.6338 62.0992 51.1377 61.6354 50.9846L60.798 50.7081C60.3369 50.5532 59.8352 50.8026 59.6806 51.2611C59.526 51.7196 59.776 52.2148 60.2398 52.368Z" fill="white"/>
<path d="M58.2841 49.8786L57.4467 49.6021C56.9847 49.4473 56.4839 49.6966 56.3293 50.1551C56.1747 50.6136 56.4238 51.1089 56.8875 51.262L57.7249 51.5385C57.8168 51.5691 57.9122 51.584 58.0041 51.584C58.3742 51.584 58.7187 51.3521 58.8415 50.9855C58.9961 50.527 58.747 50.0318 58.2841 49.8786Z" fill="white"/>
<path d="M64.9877 52.0907L64.1503 51.815C63.6892 51.6637 63.1866 51.9104 63.0329 52.3698C62.8792 52.8274 63.1292 53.3235 63.5929 53.4767L64.4303 53.7523C64.5222 53.782 64.6167 53.7969 64.7086 53.7969C65.0787 53.7969 65.4241 53.565 65.5468 53.1975C65.7005 52.739 65.4506 52.2438 64.9877 52.0907Z" fill="white"/>
</svg>
