<svg width="23" height="42" viewBox="0 0 23 42" fill="none" xmlns="http://www.w3.org/2000/svg">
<path fill-rule="evenodd" clip-rule="evenodd" d="M18.8182 21L0 2.1L2.09091 0L23 21L2.09091 42L0 39.9L18.8182 21Z" fill="#515151" fill-opacity="0.3"/>
</svg>
