<svg width="78" height="90" viewBox="0 0 78 90" fill="none" xmlns="http://www.w3.org/2000/svg">
<rect width="78" height="90" fill="black" fill-opacity="0"/>
<path fill-rule="evenodd" clip-rule="evenodd" d="M38.9711 0L77.9423 22.5V67.5L38.9711 90L-1.28746e-05 67.5V22.5L38.9711 0Z" fill="#FFCF01"/>
<rect width="42" height="42" fill="black" fill-opacity="0" transform="translate(18 24)"/>
<path d="M41.7668 44.0695C41.888 44.318 42.1293 44.4615 42.3787 44.4615C42.4829 44.4615 42.5897 44.4363 42.6892 44.3833C42.7296 44.3617 46.7631 42.2152 48.7525 41.5569C49.113 41.437 49.313 41.0335 49.1986 40.6559C49.0848 40.2783 48.7024 40.068 48.3386 40.1872C46.243 40.8814 42.2369 43.0136 42.067 43.104C41.7298 43.2834 41.5955 43.7157 41.7668 44.0695Z" fill="white"/>
<path d="M42.3787 35.8463C42.4828 35.8463 42.5897 35.8211 42.6891 35.768C42.7295 35.7465 46.7631 33.6 48.7525 32.9416C49.113 32.8218 49.313 32.4183 49.1986 32.0407C49.0848 31.6631 48.7024 31.4527 48.3386 31.5719C46.243 32.2662 42.2369 34.3983 42.0669 34.4888C41.7298 34.6682 41.5955 35.1004 41.7668 35.4543C41.888 35.7027 42.1293 35.8463 42.3787 35.8463Z" fill="white"/>
<path d="M59.2999 34.5002C58.9128 34.5002 58.6 34.8138 58.6 35.2002V62.4999C58.6 63.6577 57.6578 64.5999 56.5 64.5999H39.7V62.9892C40.7206 62.6322 43.3792 61.8 46 61.8C52.0977 61.8 56.2382 63.1503 56.2795 63.1642C56.4901 63.2342 56.7254 63.1992 56.9095 63.0676C57.0922 62.936 57.2 62.7246 57.2 62.4998V31.7003C57.2 31.372 56.9725 31.0878 56.6518 31.0171C56.6518 31.0171 56.103 30.8946 55.165 30.7223C54.7863 30.6523 54.4202 30.9043 54.3502 31.2837C54.2802 31.6645 54.5315 32.0292 54.9116 32.0992C55.2693 32.165 55.5689 32.2231 55.7999 32.2693V61.5696C54.2137 61.1538 50.6914 60.3999 45.9999 60.3999C42.95 60.3999 39.9541 61.4016 39.0272 61.7411C38.2033 61.3772 35.7127 60.3999 32.6999 60.3999C27.8783 60.3999 23.9065 61.1951 22.1999 61.5991V32.242C23.5978 31.8983 27.7264 31.0002 32.6999 31.0002C35.2521 31.0002 37.441 31.7947 38.2999 32.1538V59.7C38.2999 59.952 38.4357 60.1851 38.6548 60.309C38.8739 60.4336 39.1441 60.4301 39.3604 60.2999C39.4297 60.2586 46.3653 56.116 52.5211 54.0643C52.8074 53.9684 52.9999 53.7018 52.9999 53.4V24.7003C52.9999 24.4707 52.8872 24.2558 52.6982 24.1249C52.5106 23.994 52.2698 23.9639 52.0535 24.0445C46.4528 26.1451 40.7857 29.6717 40.7289 29.7067C40.4013 29.9118 40.3012 30.3437 40.5063 30.6713C40.7107 30.9989 41.1426 31.099 41.4709 30.8939C41.5227 30.861 46.4528 27.7937 51.5999 25.7238V52.8989C46.8216 54.5593 41.8327 57.2704 39.6998 58.4841V31.7003C39.6998 31.435 39.5501 31.1928 39.3127 31.0738C39.1923 31.0143 36.3238 29.6003 32.6999 29.6003C26.3747 29.6003 21.5118 30.9688 21.3074 31.0276C21.0071 31.1129 20.7999 31.3881 20.7999 31.7003V62.5C20.7999 62.7191 20.9035 62.9263 21.0778 63.0586C21.201 63.1517 21.3494 63.2001 21.4999 63.2001C21.5643 63.2001 21.6287 63.1909 21.6917 63.1727C21.74 63.1594 26.5805 61.8 32.6999 61.8C35.2591 61.8 37.4459 62.5966 38.2999 62.9543V64.6H21.4999C20.3422 64.6 19.3999 63.6578 19.3999 62.5V35.2003C19.3999 34.8139 19.0863 34.5003 18.7 34.5003C18.3136 34.5003 18 34.8139 18 35.2003V62.5C18 64.4299 19.5701 66 21.5 66H56.5C58.4298 66 60 64.4299 60 62.5V35.2003C59.9999 34.8138 59.687 34.5002 59.2999 34.5002Z" fill="white"/>
<path d="M41.7668 39.7619C41.888 40.0104 42.1293 40.1539 42.3787 40.1539C42.4829 40.1539 42.5897 40.1287 42.6892 40.0756C42.7296 40.0541 46.7631 37.9076 48.7525 37.2493C49.113 37.1294 49.313 36.7259 49.1986 36.3483C49.0848 35.9707 48.7024 35.7604 48.3386 35.8796C46.243 36.5738 42.2369 38.7059 42.067 38.7964C41.7298 38.9758 41.5955 39.4081 41.7668 39.7619Z" fill="white"/>
<path d="M41.7668 48.3772C41.888 48.6256 42.1293 48.7691 42.3787 48.7691C42.4829 48.7691 42.5897 48.744 42.6892 48.6909C42.7296 48.6693 46.7631 46.5228 48.7525 45.8645C49.113 45.7446 49.313 45.3411 49.1986 44.9636C49.0848 44.5859 48.7024 44.3756 48.3386 44.4948C46.243 45.189 42.2369 47.3212 42.067 47.4116C41.7298 47.5911 41.5955 48.0233 41.7668 48.3772Z" fill="white"/>
<path d="M34.7038 36.7826C30.4924 35.7407 25.7067 37.0681 25.5056 37.1249C25.1421 37.2277 24.9259 37.6218 25.0234 38.0058C25.1052 38.3272 25.3807 38.5386 25.6816 38.5386C25.7402 38.5386 25.7995 38.5307 25.8589 38.5142C25.9046 38.5005 30.5123 37.2227 34.3929 38.1827C34.7578 38.2726 35.1268 38.0331 35.2127 37.6462C35.2985 37.2601 35.0707 36.8732 34.7038 36.7826Z" fill="white"/>
<path d="M34.7038 41.09C30.4924 40.0486 25.7067 41.3755 25.5056 41.4323C25.1421 41.5352 24.9259 41.9293 25.0234 42.3133C25.1052 42.6348 25.3807 42.8462 25.6816 42.8462C25.7402 42.8462 25.7995 42.8383 25.8589 42.8218C25.9046 42.8081 30.5123 41.5301 34.3929 42.4902C34.7578 42.5802 35.1268 42.3406 35.2127 41.9537C35.2985 41.5675 35.0707 41.1806 34.7038 41.09Z" fill="white"/>
<path d="M41.7668 52.1467C41.888 52.3951 42.1293 52.5386 42.3787 52.5386C42.4829 52.5386 42.5897 52.5135 42.6892 52.4604C42.7296 52.4389 46.7631 50.2923 48.7525 49.634C49.113 49.5141 49.313 49.1107 49.1986 48.7331C49.0848 48.3555 48.7024 48.1451 48.3386 48.2643C46.243 48.9586 42.2369 51.0907 42.067 51.1811C41.7298 51.3606 41.5955 51.7928 41.7668 52.1467Z" fill="white"/>
<path d="M34.7038 45.3976C30.4924 44.3566 25.7067 45.6822 25.5056 45.7398C25.1421 45.8426 24.9259 46.2366 25.0234 46.6204C25.1052 46.9417 25.3807 47.1538 25.6816 47.1538C25.7402 47.1538 25.7995 47.1453 25.8589 47.1287C25.9046 47.115 30.5123 45.8375 34.3929 46.7972C34.7578 46.8871 35.1268 46.6477 35.2127 46.2609C35.2985 45.8749 35.0707 45.4881 34.7038 45.3976Z" fill="white"/>
<path d="M34.7038 54.013C30.4924 52.9714 25.7067 54.2984 25.5056 54.3551C25.1421 54.4579 24.9259 54.8519 25.0234 55.2357C25.1052 55.557 25.3807 55.7691 25.6816 55.7691C25.7402 55.7691 25.7995 55.7605 25.8589 55.7439C25.9046 55.7302 30.5123 54.4529 34.3929 55.4125C34.7578 55.5016 35.1268 55.263 35.2127 54.8762C35.2985 54.4903 35.0707 54.1035 34.7038 54.013Z" fill="white"/>
<path d="M34.7038 49.7055C30.4924 48.6639 25.7067 49.9901 25.5056 50.0476C25.1421 50.1504 24.9259 50.5443 25.0234 50.9281C25.1052 51.2494 25.3807 51.4615 25.6816 51.4615C25.7402 51.4615 25.7995 51.4529 25.8589 51.4363C25.9046 51.4226 30.5123 50.1453 34.3929 51.1049C34.7578 51.1948 35.1268 50.9554 35.2127 50.5687C35.2985 50.1827 35.0707 49.796 34.7038 49.7055Z" fill="white"/>
</svg>
