<svg width="122" height="140" viewBox="0 0 122 140" fill="none" xmlns="http://www.w3.org/2000/svg">
<rect width="121.333" height="140" fill="black" fill-opacity="0"/>
<path fill-rule="evenodd" clip-rule="evenodd" d="M60.6218 0L121.244 35V105L60.6218 140L-1.33514e-05 105V35L60.6218 0Z" fill="#FFCF01"/>
<rect width="72.2626" height="65.3333" fill="black" fill-opacity="0" transform="translate(24.2667 37.3333)"/>
<path fill-rule="evenodd" clip-rule="evenodd" d="M94.223 100.361H26.5729V48.8625H94.223V79.1465V84.6037V100.361ZM26.5729 46.5568H69.2386V39.6392H26.5729V46.5568ZM71.5449 46.5568H94.223V39.6392H71.5449V46.5568ZM95.3762 37.3333H25.4198C24.783 37.3333 24.2667 37.8495 24.2667 38.4862V101.514C24.2667 102.15 24.783 102.667 25.4198 102.667H95.3762C96.0131 102.667 96.5293 102.15 96.5293 101.514V84.6038V79.1466V38.4862C96.5293 37.8495 96.0131 37.3333 95.3762 37.3333Z" fill="white"/>
<path fill-rule="evenodd" clip-rule="evenodd" d="M82.6707 41.293C82.1249 41.293 81.6808 41.7371 81.6808 42.2829C81.6808 42.8287 82.1249 43.2728 82.6707 43.2728C83.2165 43.2728 83.6606 42.8287 83.6606 42.2829C83.6606 41.7371 83.2165 41.293 82.6707 41.293Z" fill="white"/>
<path fill-rule="evenodd" clip-rule="evenodd" d="M76.7313 41.293C76.1855 41.293 75.7414 41.7371 75.7414 42.2829C75.7414 42.8287 76.1855 43.2728 76.7313 43.2728C77.2771 43.2728 77.7212 42.8287 77.7212 42.2829C77.7212 41.7371 77.2771 41.293 76.7313 41.293Z" fill="white"/>
<path fill-rule="evenodd" clip-rule="evenodd" d="M88.6101 41.293C88.0643 41.293 87.6202 41.7371 87.6202 42.2829C87.6202 42.8287 88.0643 43.2728 88.6101 43.2728C89.1559 43.2728 89.6 42.8287 89.6 42.2829C89.6 41.7371 89.1559 41.293 88.6101 41.293Z" fill="white"/>
<path fill-rule="evenodd" clip-rule="evenodd" d="M47.895 55.8976L56.9859 64.9993C57.4268 65.4407 58.1417 65.4407 58.5824 64.9993C59.0233 64.5579 59.0233 63.8421 58.5824 63.4009L48.696 53.5027C48.2562 53.0623 47.5434 53.0611 47.1022 53.5L40.4385 60.1265C40.2255 60.3383 40.1056 60.6261 40.105 60.9267C40.1044 61.2272 40.2235 61.5153 40.4358 61.7278L44.8025 66.0998C44.804 66.1013 50.3449 71.6488 50.3449 71.6488C50.5653 71.8694 50.8543 71.9797 51.1432 71.9797C51.4321 71.9797 51.7211 71.8695 51.9415 71.6488C52.3824 71.2072 52.3824 70.4915 51.9415 70.0503L51.5656 69.674L54.1491 67.0874C54.5901 66.6459 54.5901 65.9302 54.1491 65.4889C53.7082 65.0475 52.9934 65.0475 52.5526 65.4889L49.969 68.0756L47.1982 65.3015L49.7818 62.7148C50.2227 62.2734 50.2227 61.5577 49.7818 61.1164C49.3409 60.675 48.626 60.675 48.1853 61.1164L45.6017 63.703L42.8336 60.9316L47.895 55.8976Z" fill="white"/>
<path fill-rule="evenodd" clip-rule="evenodd" d="M63.3846 85.6838L72.1172 94.4164C72.3291 94.6283 72.6164 94.7473 72.9161 94.7473C73.2157 94.7473 73.5029 94.6283 73.715 94.4164L80.36 87.771C80.8012 87.33 80.8012 86.6147 80.36 86.1737L70.4565 76.2702C70.0152 75.8289 69.3 75.8289 68.8589 76.2702C68.4177 76.7114 68.4177 77.4267 68.8589 77.8675L77.9637 86.9725L72.9161 92.0199L70.1474 89.2513L72.7325 86.666C73.1737 86.2249 73.1737 85.5096 72.7325 85.0686C72.2912 84.6273 71.576 84.6273 71.1349 85.0686L68.5498 87.6536L65.7811 84.8849L68.3663 82.2998C68.8075 81.8586 68.8075 81.1433 68.3663 80.7025C67.9252 80.2613 67.21 80.2613 66.7687 80.7025L64.1836 83.2876L63.8113 82.9152C63.37 82.4739 62.6549 82.4739 62.2137 82.9152C61.7725 83.3564 61.7725 84.0717 62.2137 84.5127L63.3846 85.6838Z" fill="white"/>
<path fill-rule="evenodd" clip-rule="evenodd" d="M45.9819 85.4812L49.3715 88.8706L43.4556 91.3971L45.9819 85.4812ZM74.3332 56.347C74.8891 55.7909 75.6302 55.4846 76.4196 55.4846C77.209 55.4846 77.95 55.7908 78.5061 56.347C79.0622 56.9029 79.3683 57.644 79.3683 58.4333C79.3683 59.2228 79.0623 59.9637 78.5059 60.5197L76.382 62.6438L72.2091 58.4708L74.3332 56.347ZM70.5739 60.1062L74.7468 64.2791L51.3983 87.6274L47.2254 83.4545L70.5739 60.1062ZM41.2617 94.7474C41.4146 94.7474 41.5691 94.717 41.7154 94.6546L51.832 90.3343C51.8365 90.3325 51.8525 90.3257 51.8525 90.3257C51.8624 90.3214 51.8718 90.316 51.8815 90.3117C51.9034 90.3016 51.9252 90.2915 51.9465 90.2801C51.9592 90.2733 51.9713 90.2653 51.9837 90.2579C52.0031 90.2466 52.0227 90.2355 52.0416 90.2227C52.0577 90.2119 52.0728 90.1997 52.0884 90.1883C52.1027 90.1777 52.1175 90.1675 52.1314 90.1561C52.1607 90.1322 52.189 90.1068 52.2158 90.0798L77.1997 65.0964L80.1415 62.1546C81.134 61.1619 81.6808 59.8401 81.6808 58.4331C81.681 57.0259 81.1341 55.7042 80.1415 54.7114C79.1485 53.7186 77.8267 53.1716 76.4196 53.1716C75.0124 53.1716 73.6908 53.7186 72.6978 54.7114L69.7571 57.6521C69.7554 57.6539 44.7726 82.6365 44.7726 82.6365C44.7457 82.6633 44.7204 82.6915 44.6963 82.721C44.6846 82.7353 44.6743 82.7504 44.6633 82.7651C44.6521 82.7802 44.6404 82.7947 44.6299 82.8105C44.6169 82.83 44.6054 82.85 44.5937 82.8701C44.5867 82.8819 44.5792 82.8935 44.5727 82.9057C44.561 82.9274 44.5506 82.9498 44.5405 82.9721C44.5362 82.9814 44.5311 82.9905 44.5269 82.9999L44.5203 83.0154C44.518 83.0207 40.198 93.1368 40.198 93.1368C40.0125 93.5713 40.1098 94.0746 40.4437 94.4085C40.6651 94.6302 40.9608 94.7474 41.2617 94.7474Z" fill="white"/>
</svg>
